<?xml version="1.0" encoding="utf-8"?>
<!-- Generator: Adobe Illustrator 17.1.0, SVG Export Plug-In . SVG Version: 6.00 Build 0)  -->
<!DOCTYPE svg PUBLIC "-//W3C//DTD SVG 1.1//EN" "http://www.w3.org/Graphics/SVG/1.1/DTD/svg11.dtd">
<svg version="1.1" id="Layer_1" xmlns="http://www.w3.org/2000/svg" xmlns:xlink="http://www.w3.org/1999/xlink" x="0px" y="0px"
	 viewBox="0 0 2000 774.1" enable-background="new 0 0 2000 774.1" xml:space="preserve">
<polygon fill="#FFFFFF" points="375.3,773.1 358.8,773.1 12.3,13.4 158.4,13.4 369,512.4 578.6,13.4 720.9,13.4 "/>
<path fill="#FFFFFF" d="M1157.7,774.1l-72.5-171.8H788.5L716,774.1H584.2L929.7,14.4H948l344.5,759.7H1157.7L1157.7,774.1z
	 M936.9,250.6L830.4,501h212.7L936.9,250.6z"/>
<polygon fill="#FFFFFF" points="1968.3,786.1 1499.1,291.3 1499.1,771.8 1371.3,771.8 1371.3,12.2 1391.8,8 1855,495.7 1855,22.3 
	1982.8,22.3 1982.8,783 "/>
</svg>
